{
    "name": "laravel/laravel",
    "type": "project",
    "description": "The Laravel Framework.",
    "keywords": ["framework", "laravel"],
    "license": "MIT",
    "require": {
        "php": "^8.0.2",
        "guzzlehttp/guzzle": "^7.2",
        "laravel/framework": "^10.0",
        "laravel/sanctum": "^3.2",
        "laravel/tinker": "^2.7",
        "laravelcollective/html": "^6.3",
        "spatie/laravel-permission": "^5.7",
        "doctrine/dbal":"^3.0",
        "laravel/passport":"^11.0",
        "laravel/jetstream": "^2.3",
        "laravel/ui": "^4.0",
        "laravel/socialite": "^5.2",
        "livewire/livewire": "^2.5"
        },
    "require-dev": {
        "fakerphp/faker": "^1.9.1",
        "laravel/sail": "^1.0.1",
        "mockery/mockery": "^1.4.4",
        "nunomaduro/collision": "^7.0",
        "phpunit/phpunit": "^10.0",
        "spatie/laravel-ignition": "^2.0"
    },
    "autoload": {
        "psr-4": {
            "App\\": "app/",
            "Database\\Factories\\": "database/factories/",
            "Database\\Seeders\\": "database/seeders/"
        }
    },
    "autoload-dev": {
        "psr-4": {
            "Tests\\": "tests/"
        },
        "files":[
            "app/Helpers/helpers.php"
        ]
    },
    "scripts": {
        "post-autoload-dump": [
            "Illuminate\\Foundation\\ComposerScripts::postAutoloadDump",
            "@php artisan package:discover --ansi"
        ],
        "post-root-package-install": [
            "@php -r \"file_exists('.env') || copy('.env.example', '.env');\""
        ],
        "post-create-project-cmd": [
            "@php artisan key:generate --ansi"
        ]
    },
    "extra": {
        "laravel": {
            "dont-discover": []
        }
    },
    "config": {
        "optimize-autoloader": true,
        "preferred-install": "dist",
        "sort-packages": true
    },
    "minimum-stability": "dev",
    "prefer-stable": true
}

// "illuminate/contracts": "^5.0|^6.0|^7.0|^8.0|^9.0",
// {
//     "name": "laravel/laravel",
//     "type": "project",
//     "description": "The Laravel Framework.",
//     "keywords": ["framework", "laravel"],
//     "license": "MIT",
//     "require": {
//         "php": "^7.4|^8.0",
//         "awobaz/compoships": "^2.1",
//         "fideloper/proxy": "^4.4",
//         "fruitcake/laravel-cors": "^2.0",
//         "guzzlehttp/guzzle": "^6.0",
//         "intervention/image": "^2.6",
//         "intervention/zodiac": "^2.2",
//         "jcobhams/newsapi": "^1.0",
//         "laravel/framework": "^10.0",
//         "laravel/jetstream": "^2.3",
//         "laravel/sanctum": "^3.2",
//         "laravel/ui": "^4.0",
//         "laravel/passport": "^11.0",
//         "doctrine/dbal": "^3.0",
//         "laravel/socialite": "^5.2",
//         "laravel/tinker": "^2.5",
//         "livewire/livewire": "^2.5",
//         "rtconner/laravel-tagging": "^4.1",
//         "spatie/laravel-activitylog": "^3.17",
//         "spatie/laravel-medialibrary": "^9.12.2",
//         "stevebauman/location": "^6.2"
//     },
//     "require-dev": {
//         "spatie/laravel-ignition": "^2.0",
//         "fakerphp/faker": "^1.9.1",
//         "laravel/sail": "^1.0.1",
//         "mockery/mockery": "^1.4.2",
//         "nunomaduro/collision": "^7.0",
//         "phpunit/phpunit": "^10.0",
//         "league/flysystem": "^3.8.0"
//     },
//     "autoload": {
//         "psr-4": {
//             "App\\": "app/",
//             "Database\\Factories\\": "database/factories/",
//             "Database\\Seeders\\": "database/seeders/"
//         }
//     },
//     "autoload-dev": {
//         "psr-4": {
//             "Tests\\": "tests/"
//         },
//         "files":[
//             "app/Helpers/helpers.php"
//         ]
//     },
//     "scripts": {
//         "post-autoload-dump": [
//             "Illuminate\\Foundation\\ComposerScripts::postAutoloadDump",
//             "@php artisan package:discover --ansi"
//         ],
//         "post-root-package-install": [
//             "@php -r \"file_exists('.env') || copy('.env.example', '.env');\""
//         ],
//         "post-create-project-cmd": [
//             "@php artisan key:generate --ansi"
//         ]
//     },
//     "extra": {
//         "laravel": {
//             "dont-discover": []
//         }
//     },
//     "config": {
//         "optimize-autoloader": true,
//         "preferred-install": "dist",
//         "sort-packages": true
//     },
//     "minimum-stability": "dev",
//     "prefer-stable": true
// }
